<?xml version="1.0" encoding="UTF-8"?>
<session version="1.0">
<refactoring accessors="true" comment="Delete element from project &apos;Factory Design patern with singleton OCP&apos;&#x0D;&#x0A;- Original project: &apos;Factory Design patern with singleton OCP&apos;&#x0D;&#x0A;- Original element: &apos;com.monocept.model.AutomobileFactory.java&apos;" description="Delete element" element1="/src&lt;com.monocept.model{AutomobileFactory.java" elements="1" flags="589830" id="org.eclipse.jdt.ui.delete" resources="0" stamp="1659874813498" subPackages="false" version="1.0"/>
</session>