<?xml version="1.0" encoding="UTF-8"?>
<session version="1.0">
<refactoring accessors="true" comment="Delete element from project &apos;20-ClassifyPlayerTest&apos;&#x0D;&#x0A;- Original project: &apos;20-ClassifyPlayerTest&apos;&#x0D;&#x0A;- Original element: &apos;20-ClassifyPlayerTest/src/PlayerTest&apos;" description="Delete element" element1="/src&lt;PlayerTest" elements="1" flags="589830" id="org.eclipse.jdt.ui.delete" resources="0" stamp="1657204509731" subPackages="false" version="1.0"/>
</session>